…
The `nestyr::nest_cols()` function gets around the need to include a row id to nesting columns together while preserving rows. In other words, you can nest horizontally without thinking about row grouping. Like `nest2`, `nest_cols` also works with pre-existing list columns.

Example
-------

Suppose we take the example provided by the "R for Data Science" book by Garret Germund and Hadley Wickham see (<https://github.com/tidyverse/tidyr/issues/249>). In this instance, however, let's say we wanted to nest together the columns `country` and `continent` together, and then nest together the remaining columns by unique country-continent.

``` r
library(gapminder)
library(tidyverse)
library(nestyr)
gapminder %>% 
  nest_cols(country, continent, .key = "country_data") %>% 
  nest2(-country_data)
#> # A tibble: 142 x 2
#>    country_data     data             
#>    <list>           <list>           
#>  1 <tibble [1 x 2]> <tibble [12 x 4]>
#>  2 <tibble [1 x 2]> <tibble [12 x 4]>
#>  3 <tibble [1 x 2]> <tibble [12 x 4]>
#>  4 <tibble [1 x 2]> <tibble [12 x 4]>
#>  5 <tibble [1 x 2]> <tibble [12 x 4]>
#>  6 <tibble [1 x 2]> <tibble [12 x 4]>
#>  7 <tibble [1 x 2]> <tibble [12 x 4]>
#>  8 <tibble [1 x 2]> <tibble [12 x 4]>
#>  9 <tibble [1 x 2]> <tibble [12 x 4]>
#> 10 <tibble [1 x 2]> <tibble [12 x 4]>
#> # ... with 132 more rows
```
…
